OrderID	LeadID	FileCode	Company	FirstName	LastName	Address1	Address2	City	State	ZIP
23819	10505024	2023-09-08 11:14:58	Company Name	First Name	Last Name	Street		City	Illinois	52142
33942	10505047	2023-09-08 11:14:58	IBM	N2	L2	Jayanagar		Blore	NU	56005
33949	10505050	2023-09-08 11:14:58	Dell	John	Mark	4th tower		Vienna	NM	54351
33949	10505051	2023-09-08 11:14:58	Dell	Peter	Parker	5th tower		Vienna	NV	54736